{
  "map": "2_display.jpg",
  "rd": [
    {
      "xpos": 100,
      "ypos": 80,
      "icon": "blue"
    },
    {
      "xpos": 150,
      "ypos": 80,
      "icon": "red"
    }
  ],
  "td": [
    {
      "icon": "iphone",
      "id": 12
    }
  ]
}