{
  "$schema": "http://json-schema.org/draft-06/schema#",
  "title": "Location",
  "type": "object",
  "description": "Initializes a location.",
  "properties": {
    "map": {
      "type": "string",
      "description": "The relative path to fetch the map image from. The presence of this key denotes, that this json packet is of the Location type (not position or another type)"
    },
    "rd": {
      "description": "Contains all ranging devices, beacons and wifi access points.",
      "type": "array",
      "items": {
        "$ref": "#/definitions/ranging-device"
      }
    },
    "td": {
      "description": "Contains all tracking devices to be shown on the map which will receive updates.",
      "type": "array",
      "items": {
        "$ref": "#/definitions/tracking-device"
      }
    },
    "required": [
      "map",
      "rd"
    ]
  },
  "definitions": {
    "ranging-device": {
      "type": "object",
      "properties": {
        "icon": {
          "enum": [
            "beacon-black",
            "grey",
            "blue",
            "TOBECONTINUED"
          ],
          "description": "The icon to show on the map, named as icon files"
        },
        "xpos": {
          "type": "integer",
          "minimum": 0,
          "description": "X Position on the map in pixels."
        },
        "ypos": {
          "type": "integer",
          "minimum": 0,
          "description": "Y Position on the map in pixels."
        }
      },
      "required": ["xpos", "ypos", "enum"]
    },
    "tracking-device": {
      "type": "object",
      "properties": {
        "icon": {
          "enum": [
            "iphone",
            "android",
            "arduino"
          ]
        },
        "id": {
          "type": "integer",
          "minimum": 0,
          "description": "The id with which the updates reference the devices."
        }
      },
      "required": ["icon", "id"]
    }
  }
}